[INFO] 2016-05-20 02:43:56,949 kafka.utils.VerifiableProperties info - Verifying properties
[INFO] 2016-05-20 02:43:56,980 kafka.utils.VerifiableProperties info - Property auto.commit.interval.ms is overridden to 1000
[INFO] 2016-05-20 02:43:56,980 kafka.utils.VerifiableProperties info - Property auto.offset.reset is overridden to largest
[INFO] 2016-05-20 02:43:56,980 kafka.utils.VerifiableProperties info - Property group.id is overridden to test
[INFO] 2016-05-20 02:43:56,981 kafka.utils.VerifiableProperties info - Property zookeeper.connect is overridden to localhost:2181
[INFO] 2016-05-20 02:43:56,981 kafka.utils.VerifiableProperties info - Property zookeeper.session.timeout.ms is overridden to 400
[INFO] 2016-05-20 02:43:56,982 kafka.utils.VerifiableProperties info - Property zookeeper.sync.time.ms is overridden to 200
[INFO] 2016-05-20 02:43:57,115 kafka.consumer.ZookeeperConsumerConnector info - [test_ubu-VirtualBox-1463701437113-153c88e4], Connecting to zookeeper instance at localhost:2181
[INFO] 2016-05-20 02:43:57,127 org.I0Itec.zkclient.ZkEventThread run - Starting ZkClient event thread.
[INFO] 2016-05-20 02:43:57,211 org.I0Itec.zkclient.ZkClient processStateChanged - zookeeper state changed (SyncConnected)
[INFO] 2016-05-20 02:43:57,226 kafka.consumer.ZookeeperConsumerConnector info - [test_ubu-VirtualBox-1463701437113-153c88e4], starting auto committer every 1000 ms
[INFO] 2016-05-20 02:43:57,278 kafka.consumer.ZookeeperConsumerConnector info - [test_ubu-VirtualBox-1463701437113-153c88e4], begin registering consumer test_ubu-VirtualBox-1463701437113-153c88e4 in ZK
[INFO] 2016-05-20 02:43:57,325 kafka.consumer.ZookeeperConsumerConnector info - [test_ubu-VirtualBox-1463701437113-153c88e4], end registering consumer test_ubu-VirtualBox-1463701437113-153c88e4 in ZK
[INFO] 2016-05-20 02:43:57,338 kafka.consumer.ZookeeperConsumerConnector info - [test_ubu-VirtualBox-1463701437113-153c88e4], starting watcher executor thread for consumer test_ubu-VirtualBox-1463701437113-153c88e4
[INFO] 2016-05-20 02:43:57,883 kafka.consumer.ZookeeperConsumerConnector info - [test_ubu-VirtualBox-1463701437113-153c88e4], begin rebalancing consumer test_ubu-VirtualBox-1463701437113-153c88e4 try #0
[INFO] 2016-05-20 02:43:58,020 kafka.consumer.ConsumerFetcherManager info - [ConsumerFetcherManager-1463701437220] Stopping leader finder thread
[INFO] 2016-05-20 02:43:58,024 kafka.consumer.ConsumerFetcherManager info - [ConsumerFetcherManager-1463701437220] Stopping all fetchers
[INFO] 2016-05-20 02:43:58,026 kafka.consumer.ConsumerFetcherManager info - [ConsumerFetcherManager-1463701437220] All connections stopped
[INFO] 2016-05-20 02:43:58,027 kafka.consumer.ZookeeperConsumerConnector info - [test_ubu-VirtualBox-1463701437113-153c88e4], Cleared all relevant queues for this fetcher
[INFO] 2016-05-20 02:43:58,028 kafka.consumer.ZookeeperConsumerConnector info - [test_ubu-VirtualBox-1463701437113-153c88e4], Cleared the data chunks in all the consumer message iterators
[INFO] 2016-05-20 02:43:58,028 kafka.consumer.ZookeeperConsumerConnector info - [test_ubu-VirtualBox-1463701437113-153c88e4], Committing all offsets after clearing the fetcher queues
[INFO] 2016-05-20 02:43:58,030 kafka.consumer.ZookeeperConsumerConnector info - [test_ubu-VirtualBox-1463701437113-153c88e4], Releasing partition ownership
[INFO] 2016-05-20 02:43:58,080 kafka.consumer.RangeAssignor info - Consumer test_ubu-VirtualBox-1463701437113-153c88e4 rebalancing the following partitions: ArrayBuffer(0) for topic eddydata with consumers: List(test_ubu-VirtualBox-1463701437113-153c88e4-0, test_ubu-VirtualBox-1463701437113-153c88e4-1, test_ubu-VirtualBox-1463701437113-153c88e4-2)
[WARN] 2016-05-20 02:43:58,081 kafka.consumer.RangeAssignor warn - No broker partitions consumed by consumer thread test_ubu-VirtualBox-1463701437113-153c88e4-1 for topic eddydata
[INFO] 2016-05-20 02:43:58,083 kafka.consumer.RangeAssignor info - test_ubu-VirtualBox-1463701437113-153c88e4-0 attempting to claim partition 0
[WARN] 2016-05-20 02:43:58,084 kafka.consumer.RangeAssignor warn - No broker partitions consumed by consumer thread test_ubu-VirtualBox-1463701437113-153c88e4-2 for topic eddydata
[INFO] 2016-05-20 02:43:58,112 kafka.consumer.ZookeeperConsumerConnector info - [test_ubu-VirtualBox-1463701437113-153c88e4], test_ubu-VirtualBox-1463701437113-153c88e4-0 successfully owned partition 0 for topic eddydata
[INFO] 2016-05-20 02:43:58,128 kafka.consumer.ZookeeperConsumerConnector info - [test_ubu-VirtualBox-1463701437113-153c88e4], Consumer test_ubu-VirtualBox-1463701437113-153c88e4 selected partitions : eddydata:0: fetched offset = 2: consumed offset = 2
[INFO] 2016-05-20 02:43:58,135 kafka.consumer.ZookeeperConsumerConnector info - [test_ubu-VirtualBox-1463701437113-153c88e4], end rebalancing consumer test_ubu-VirtualBox-1463701437113-153c88e4 try #0
[INFO] 2016-05-20 02:43:58,142 kafka.consumer.ConsumerFetcherManager$LeaderFinderThread info - [test_ubu-VirtualBox-1463701437113-153c88e4-leader-finder-thread], Starting 
[INFO] 2016-05-20 02:43:58,191 kafka.utils.VerifiableProperties info - Verifying properties
[INFO] 2016-05-20 02:43:58,192 kafka.utils.VerifiableProperties info - Property client.id is overridden to test
[INFO] 2016-05-20 02:43:58,192 kafka.utils.VerifiableProperties info - Property metadata.broker.list is overridden to ubu-VirtualBox:9092
[INFO] 2016-05-20 02:43:58,192 kafka.utils.VerifiableProperties info - Property request.timeout.ms is overridden to 30000
[INFO] 2016-05-20 02:43:58,250 kafka.client.ClientUtils$ info - Fetching metadata from broker id:0,host:ubu-VirtualBox,port:9092 with correlation id 0 for 1 topic(s) Set(eddydata)
[INFO] 2016-05-20 02:43:58,254 kafka.producer.SyncProducer info - Connected to ubu-VirtualBox:9092 for producing
[INFO] 2016-05-20 02:43:58,380 kafka.producer.SyncProducer info - Disconnecting from ubu-VirtualBox:9092
[INFO] 2016-05-20 02:43:58,400 kafka.consumer.ConsumerFetcherThread info - [ConsumerFetcherThread-test_ubu-VirtualBox-1463701437113-153c88e4-0-0], Starting 
[INFO] 2016-05-20 02:43:58,403 kafka.consumer.ConsumerFetcherManager info - [ConsumerFetcherManager-1463701437220] Added fetcher for partitions ArrayBuffer([[eddydata,0], initOffset 2 to broker id:0,host:ubu-VirtualBox,port:9092] )
[ERROR] 2016-05-20 02:43:58,474 kafka.consumer.ConsumerFetcherThread error - [ConsumerFetcherThread-test_ubu-VirtualBox-1463701437113-153c88e4-0-0], Current offset 2 for partition [eddydata,0] out of range; reset offset to 0
[INFO] 2016-05-20 02:46:55,424 kafka.utils.VerifiableProperties info - Verifying properties
[WARN] 2016-05-20 02:46:55,429 kafka.utils.VerifiableProperties warn - Property group.id is not valid
[INFO] 2016-05-20 02:46:55,430 kafka.utils.VerifiableProperties info - Property metadata.broker.list is overridden to localhost:9092
[INFO] 2016-05-20 02:46:55,430 kafka.utils.VerifiableProperties info - Property serializer.class is overridden to kafka.serializer.StringEncoder
[WARN] 2016-05-20 02:46:55,430 kafka.utils.VerifiableProperties warn - Property zookeeper.connect is not valid
[INFO] 2016-05-20 02:46:55,596 kafka.client.ClientUtils$ info - Fetching metadata from broker id:0,host:localhost,port:9092 with correlation id 0 for 1 topic(s) Set(eddydata)
[INFO] 2016-05-20 02:46:55,605 kafka.producer.SyncProducer info - Connected to localhost:9092 for producing
[INFO] 2016-05-20 02:46:55,623 kafka.producer.SyncProducer info - Disconnecting from localhost:9092
[INFO] 2016-05-20 02:46:55,655 kafka.producer.SyncProducer info - Connected to ubu-VirtualBox:9092 for producing
[INFO] 2016-05-20 02:57:41,821 kafka.utils.VerifiableProperties info - Verifying properties
[INFO] 2016-05-20 02:57:41,825 kafka.utils.VerifiableProperties info - Property auto.offset.reset is overridden to largest
[INFO] 2016-05-20 02:57:41,825 kafka.utils.VerifiableProperties info - Property consumer.timeout.ms is overridden to 1500
[INFO] 2016-05-20 02:57:41,826 kafka.utils.VerifiableProperties info - Property group.id is overridden to ReactiveKafka-b6264d51-8d60-45fd-b871-b3f6c237f0bb
[WARN] 2016-05-20 02:57:41,826 kafka.utils.VerifiableProperties warn - Property metadata.broker.list is not valid
[INFO] 2016-05-20 02:57:41,827 kafka.utils.VerifiableProperties info - Property offsets.storage is overridden to zookeeper
[INFO] 2016-05-20 02:57:41,827 kafka.utils.VerifiableProperties info - Property zookeeper.connect is overridden to localhost:2181
[INFO] 2016-05-20 02:57:41,860 kafka.consumer.ZookeeperConsumerConnector info - [ReactiveKafka-b6264d51-8d60-45fd-b871-b3f6c237f0bb_ubu-VirtualBox-1463702261859-e883050c], Connecting to zookeeper instance at localhost:2181
[INFO] 2016-05-20 02:57:41,875 org.I0Itec.zkclient.ZkEventThread run - Starting ZkClient event thread.
[INFO] 2016-05-20 02:57:41,930 org.I0Itec.zkclient.ZkClient processStateChanged - zookeeper state changed (SyncConnected)
[INFO] 2016-05-20 02:57:41,939 kafka.consumer.ZookeeperConsumerConnector info - [ReactiveKafka-b6264d51-8d60-45fd-b871-b3f6c237f0bb_ubu-VirtualBox-1463702261859-e883050c], starting auto committer every 60000 ms
[INFO] 2016-05-20 02:57:41,945 kafka.consumer.KafkaConsumer <init> - setup:start topic=hrv for zk=localhost:2181 and groupId=ReactiveKafka-b6264d51-8d60-45fd-b871-b3f6c237f0bb
[INFO] 2016-05-20 02:57:41,974 kafka.consumer.ZookeeperConsumerConnector info - [ReactiveKafka-b6264d51-8d60-45fd-b871-b3f6c237f0bb_ubu-VirtualBox-1463702261859-e883050c], begin registering consumer ReactiveKafka-b6264d51-8d60-45fd-b871-b3f6c237f0bb_ubu-VirtualBox-1463702261859-e883050c in ZK
[INFO] 2016-05-20 02:57:42,005 kafka.consumer.ZookeeperConsumerConnector info - [ReactiveKafka-b6264d51-8d60-45fd-b871-b3f6c237f0bb_ubu-VirtualBox-1463702261859-e883050c], end registering consumer ReactiveKafka-b6264d51-8d60-45fd-b871-b3f6c237f0bb_ubu-VirtualBox-1463702261859-e883050c in ZK
[INFO] 2016-05-20 02:57:42,024 kafka.consumer.ZookeeperConsumerConnector info - [ReactiveKafka-b6264d51-8d60-45fd-b871-b3f6c237f0bb_ubu-VirtualBox-1463702261859-e883050c], starting watcher executor thread for consumer ReactiveKafka-b6264d51-8d60-45fd-b871-b3f6c237f0bb_ubu-VirtualBox-1463702261859-e883050c
[INFO] 2016-05-20 02:57:42,031 kafka.consumer.ZookeeperConsumerConnector info - [ReactiveKafka-b6264d51-8d60-45fd-b871-b3f6c237f0bb_ubu-VirtualBox-1463702261859-e883050c], begin rebalancing consumer ReactiveKafka-b6264d51-8d60-45fd-b871-b3f6c237f0bb_ubu-VirtualBox-1463702261859-e883050c try #0
[INFO] 2016-05-20 02:57:42,196 kafka.consumer.ConsumerFetcherManager info - [ConsumerFetcherManager-1463702261936] Stopping leader finder thread
[INFO] 2016-05-20 02:57:42,196 kafka.consumer.ConsumerFetcherManager info - [ConsumerFetcherManager-1463702261936] Stopping all fetchers
[INFO] 2016-05-20 02:57:42,197 kafka.consumer.ConsumerFetcherManager info - [ConsumerFetcherManager-1463702261936] All connections stopped
[INFO] 2016-05-20 02:57:42,198 kafka.consumer.ZookeeperConsumerConnector info - [ReactiveKafka-b6264d51-8d60-45fd-b871-b3f6c237f0bb_ubu-VirtualBox-1463702261859-e883050c], Cleared all relevant queues for this fetcher
[INFO] 2016-05-20 02:57:42,199 kafka.consumer.ZookeeperConsumerConnector info - [ReactiveKafka-b6264d51-8d60-45fd-b871-b3f6c237f0bb_ubu-VirtualBox-1463702261859-e883050c], Cleared the data chunks in all the consumer message iterators
[INFO] 2016-05-20 02:57:42,200 kafka.consumer.ZookeeperConsumerConnector info - [ReactiveKafka-b6264d51-8d60-45fd-b871-b3f6c237f0bb_ubu-VirtualBox-1463702261859-e883050c], Committing all offsets after clearing the fetcher queues
[INFO] 2016-05-20 02:57:42,201 kafka.consumer.ZookeeperConsumerConnector info - [ReactiveKafka-b6264d51-8d60-45fd-b871-b3f6c237f0bb_ubu-VirtualBox-1463702261859-e883050c], Releasing partition ownership
[INFO] 2016-05-20 02:57:42,282 kafka.consumer.ZookeeperConsumerConnector info - [ReactiveKafka-b6264d51-8d60-45fd-b871-b3f6c237f0bb_ubu-VirtualBox-1463702261859-e883050c], Consumer ReactiveKafka-b6264d51-8d60-45fd-b871-b3f6c237f0bb_ubu-VirtualBox-1463702261859-e883050c selected partitions : 
[INFO] 2016-05-20 02:57:42,287 kafka.consumer.ZookeeperConsumerConnector info - [ReactiveKafka-b6264d51-8d60-45fd-b871-b3f6c237f0bb_ubu-VirtualBox-1463702261859-e883050c], end rebalancing consumer ReactiveKafka-b6264d51-8d60-45fd-b871-b3f6c237f0bb_ubu-VirtualBox-1463702261859-e883050c try #0
[INFO] 2016-05-20 02:57:42,289 kafka.consumer.ZookeeperConsumerConnector info - [ReactiveKafka-b6264d51-8d60-45fd-b871-b3f6c237f0bb_ubu-VirtualBox-1463702261859-e883050c], Creating topic event watcher for topics hrv
[INFO] 2016-05-20 02:57:42,296 kafka.consumer.ZookeeperConsumerConnector info - [ReactiveKafka-b6264d51-8d60-45fd-b871-b3f6c237f0bb_ubu-VirtualBox-1463702261859-e883050c], Topics to consume = List()
[INFO] 2016-05-20 02:57:42,304 kafka.consumer.ConsumerFetcherManager$LeaderFinderThread info - [ReactiveKafka-b6264d51-8d60-45fd-b871-b3f6c237f0bb_ubu-VirtualBox-1463702261859-e883050c-leader-finder-thread], Starting 
[INFO] 2016-05-20 02:57:42,305 kafka.consumer.KafkaConsumer <init> - setup:complete topic=hrv for zk=localhost:2181 and groupId=ReactiveKafka-b6264d51-8d60-45fd-b871-b3f6c237f0bb
[INFO] 2016-05-20 02:57:42,328 kafka.utils.VerifiableProperties info - Verifying properties
[INFO] 2016-05-20 02:57:42,328 kafka.utils.VerifiableProperties info - Property auto.offset.reset is overridden to largest
[INFO] 2016-05-20 02:57:42,329 kafka.utils.VerifiableProperties info - Property consumer.timeout.ms is overridden to 1500
[INFO] 2016-05-20 02:57:42,329 kafka.utils.VerifiableProperties info - Property group.id is overridden to ReactiveKafka-25dc1826-685e-4e73-8834-b8aa1f935216
[WARN] 2016-05-20 02:57:42,329 kafka.utils.VerifiableProperties warn - Property metadata.broker.list is not valid
[INFO] 2016-05-20 02:57:42,330 kafka.utils.VerifiableProperties info - Property offsets.storage is overridden to zookeeper
[INFO] 2016-05-20 02:57:42,330 kafka.utils.VerifiableProperties info - Property zookeeper.connect is overridden to localhost:2181
[INFO] 2016-05-20 02:57:42,332 kafka.consumer.ZookeeperConsumerConnector info - [ReactiveKafka-25dc1826-685e-4e73-8834-b8aa1f935216_ubu-VirtualBox-1463702262332-c3a6cbec], Connecting to zookeeper instance at localhost:2181
[INFO] 2016-05-20 02:57:42,335 org.I0Itec.zkclient.ZkEventThread run - Starting ZkClient event thread.
[INFO] 2016-05-20 02:57:42,355 org.I0Itec.zkclient.ZkClient processStateChanged - zookeeper state changed (SyncConnected)
[INFO] 2016-05-20 02:57:42,360 kafka.consumer.ZookeeperConsumerConnector info - [ReactiveKafka-25dc1826-685e-4e73-8834-b8aa1f935216_ubu-VirtualBox-1463702262332-c3a6cbec], starting auto committer every 60000 ms
[INFO] 2016-05-20 02:57:42,361 kafka.consumer.KafkaConsumer <init> - setup:start topic=rtSocketData for zk=localhost:2181 and groupId=ReactiveKafka-25dc1826-685e-4e73-8834-b8aa1f935216
[INFO] 2016-05-20 02:57:42,370 kafka.consumer.ZookeeperConsumerConnector info - [ReactiveKafka-25dc1826-685e-4e73-8834-b8aa1f935216_ubu-VirtualBox-1463702262332-c3a6cbec], begin registering consumer ReactiveKafka-25dc1826-685e-4e73-8834-b8aa1f935216_ubu-VirtualBox-1463702262332-c3a6cbec in ZK
[INFO] 2016-05-20 02:57:42,381 kafka.consumer.ZookeeperConsumerConnector info - [ReactiveKafka-25dc1826-685e-4e73-8834-b8aa1f935216_ubu-VirtualBox-1463702262332-c3a6cbec], end registering consumer ReactiveKafka-25dc1826-685e-4e73-8834-b8aa1f935216_ubu-VirtualBox-1463702262332-c3a6cbec in ZK
[INFO] 2016-05-20 02:57:42,387 kafka.consumer.ZookeeperConsumerConnector info - [ReactiveKafka-25dc1826-685e-4e73-8834-b8aa1f935216_ubu-VirtualBox-1463702262332-c3a6cbec], starting watcher executor thread for consumer ReactiveKafka-25dc1826-685e-4e73-8834-b8aa1f935216_ubu-VirtualBox-1463702262332-c3a6cbec
[INFO] 2016-05-20 02:57:42,388 kafka.consumer.ZookeeperConsumerConnector info - [ReactiveKafka-25dc1826-685e-4e73-8834-b8aa1f935216_ubu-VirtualBox-1463702262332-c3a6cbec], begin rebalancing consumer ReactiveKafka-25dc1826-685e-4e73-8834-b8aa1f935216_ubu-VirtualBox-1463702262332-c3a6cbec try #0
[INFO] 2016-05-20 02:57:42,433 kafka.consumer.ConsumerFetcherManager info - [ConsumerFetcherManager-1463702262357] Stopping leader finder thread
[INFO] 2016-05-20 02:57:42,434 kafka.consumer.ConsumerFetcherManager info - [ConsumerFetcherManager-1463702262357] Stopping all fetchers
[INFO] 2016-05-20 02:57:42,434 kafka.consumer.ConsumerFetcherManager info - [ConsumerFetcherManager-1463702262357] All connections stopped
[INFO] 2016-05-20 02:57:42,434 kafka.consumer.ZookeeperConsumerConnector info - [ReactiveKafka-25dc1826-685e-4e73-8834-b8aa1f935216_ubu-VirtualBox-1463702262332-c3a6cbec], Cleared all relevant queues for this fetcher
[INFO] 2016-05-20 02:57:42,435 kafka.consumer.ZookeeperConsumerConnector info - [ReactiveKafka-25dc1826-685e-4e73-8834-b8aa1f935216_ubu-VirtualBox-1463702262332-c3a6cbec], Cleared the data chunks in all the consumer message iterators
[INFO] 2016-05-20 02:57:42,435 kafka.consumer.ZookeeperConsumerConnector info - [ReactiveKafka-25dc1826-685e-4e73-8834-b8aa1f935216_ubu-VirtualBox-1463702262332-c3a6cbec], Committing all offsets after clearing the fetcher queues
[INFO] 2016-05-20 02:57:42,435 kafka.consumer.ZookeeperConsumerConnector info - [ReactiveKafka-25dc1826-685e-4e73-8834-b8aa1f935216_ubu-VirtualBox-1463702262332-c3a6cbec], Releasing partition ownership
[INFO] 2016-05-20 02:57:42,456 kafka.consumer.ZookeeperConsumerConnector info - [ReactiveKafka-25dc1826-685e-4e73-8834-b8aa1f935216_ubu-VirtualBox-1463702262332-c3a6cbec], Consumer ReactiveKafka-25dc1826-685e-4e73-8834-b8aa1f935216_ubu-VirtualBox-1463702262332-c3a6cbec selected partitions : 
[INFO] 2016-05-20 02:57:42,458 kafka.consumer.ZookeeperConsumerConnector info - [ReactiveKafka-25dc1826-685e-4e73-8834-b8aa1f935216_ubu-VirtualBox-1463702262332-c3a6cbec], end rebalancing consumer ReactiveKafka-25dc1826-685e-4e73-8834-b8aa1f935216_ubu-VirtualBox-1463702262332-c3a6cbec try #0
[INFO] 2016-05-20 02:57:42,458 kafka.consumer.ZookeeperConsumerConnector info - [ReactiveKafka-25dc1826-685e-4e73-8834-b8aa1f935216_ubu-VirtualBox-1463702262332-c3a6cbec], Creating topic event watcher for topics rtSocketData
[INFO] 2016-05-20 02:57:42,463 kafka.consumer.ZookeeperConsumerConnector info - [ReactiveKafka-25dc1826-685e-4e73-8834-b8aa1f935216_ubu-VirtualBox-1463702262332-c3a6cbec], Topics to consume = List()
[INFO] 2016-05-20 02:57:42,464 kafka.consumer.KafkaConsumer <init> - setup:complete topic=rtSocketData for zk=localhost:2181 and groupId=ReactiveKafka-25dc1826-685e-4e73-8834-b8aa1f935216
[INFO] 2016-05-20 02:57:42,473 kafka.consumer.ConsumerFetcherManager$LeaderFinderThread info - [ReactiveKafka-25dc1826-685e-4e73-8834-b8aa1f935216_ubu-VirtualBox-1463702262332-c3a6cbec-leader-finder-thread], Starting 
[INFO] 2016-05-20 02:58:41,821 kafka.utils.VerifiableProperties info - Verifying properties
[INFO] 2016-05-20 02:58:41,836 kafka.utils.VerifiableProperties info - Property auto.commit.interval.ms is overridden to 1000
[INFO] 2016-05-20 02:58:41,837 kafka.utils.VerifiableProperties info - Property auto.offset.reset is overridden to largest
[INFO] 2016-05-20 02:58:41,839 kafka.utils.VerifiableProperties info - Property group.id is overridden to test
[INFO] 2016-05-20 02:58:41,839 kafka.utils.VerifiableProperties info - Property zookeeper.connect is overridden to localhost:2181
[INFO] 2016-05-20 02:58:41,841 kafka.utils.VerifiableProperties info - Property zookeeper.session.timeout.ms is overridden to 400
[INFO] 2016-05-20 02:58:41,841 kafka.utils.VerifiableProperties info - Property zookeeper.sync.time.ms is overridden to 200
[INFO] 2016-05-20 02:58:41,848 kafka.consumer.ZookeeperConsumerConnector info - [test_ubu-VirtualBox-1463702321848-7a5d31a5], Connecting to zookeeper instance at localhost:2181
[INFO] 2016-05-20 02:58:41,849 org.I0Itec.zkclient.ZkEventThread run - Starting ZkClient event thread.
[INFO] 2016-05-20 02:58:41,870 org.I0Itec.zkclient.ZkClient processStateChanged - zookeeper state changed (SyncConnected)
[INFO] 2016-05-20 02:58:41,871 kafka.consumer.ZookeeperConsumerConnector info - [test_ubu-VirtualBox-1463702321848-7a5d31a5], starting auto committer every 1000 ms
[INFO] 2016-05-20 02:58:41,884 kafka.consumer.ZookeeperConsumerConnector info - [test_ubu-VirtualBox-1463702321848-7a5d31a5], begin registering consumer test_ubu-VirtualBox-1463702321848-7a5d31a5 in ZK
[INFO] 2016-05-20 02:58:41,899 kafka.consumer.ZookeeperConsumerConnector info - [test_ubu-VirtualBox-1463702321848-7a5d31a5], end registering consumer test_ubu-VirtualBox-1463702321848-7a5d31a5 in ZK
[INFO] 2016-05-20 02:58:41,905 kafka.consumer.ZookeeperConsumerConnector info - [test_ubu-VirtualBox-1463702321848-7a5d31a5], starting watcher executor thread for consumer test_ubu-VirtualBox-1463702321848-7a5d31a5
[INFO] 2016-05-20 02:58:41,917 kafka.consumer.ZookeeperConsumerConnector info - [test_ubu-VirtualBox-1463702321848-7a5d31a5], begin rebalancing consumer test_ubu-VirtualBox-1463702321848-7a5d31a5 try #0
[INFO] 2016-05-20 02:58:41,950 kafka.consumer.ConsumerFetcherManager info - [ConsumerFetcherManager-1463702321870] Stopping leader finder thread
[INFO] 2016-05-20 02:58:41,951 kafka.consumer.ConsumerFetcherManager info - [ConsumerFetcherManager-1463702321870] Stopping all fetchers
[INFO] 2016-05-20 02:58:41,951 kafka.consumer.ConsumerFetcherManager info - [ConsumerFetcherManager-1463702321870] All connections stopped
[INFO] 2016-05-20 02:58:41,952 kafka.consumer.ZookeeperConsumerConnector info - [test_ubu-VirtualBox-1463702321848-7a5d31a5], Cleared all relevant queues for this fetcher
[INFO] 2016-05-20 02:58:41,953 kafka.consumer.ZookeeperConsumerConnector info - [test_ubu-VirtualBox-1463702321848-7a5d31a5], Cleared the data chunks in all the consumer message iterators
[INFO] 2016-05-20 02:58:41,953 kafka.consumer.ZookeeperConsumerConnector info - [test_ubu-VirtualBox-1463702321848-7a5d31a5], Committing all offsets after clearing the fetcher queues
[INFO] 2016-05-20 02:58:41,953 kafka.consumer.ZookeeperConsumerConnector info - [test_ubu-VirtualBox-1463702321848-7a5d31a5], Releasing partition ownership
[INFO] 2016-05-20 02:58:41,972 kafka.consumer.RangeAssignor info - Consumer test_ubu-VirtualBox-1463702321848-7a5d31a5 rebalancing the following partitions: ArrayBuffer(0) for topic eddydata with consumers: List(test_ubu-VirtualBox-1463702321848-7a5d31a5-0, test_ubu-VirtualBox-1463702321848-7a5d31a5-1, test_ubu-VirtualBox-1463702321848-7a5d31a5-2)
[WARN] 2016-05-20 02:58:41,973 kafka.consumer.RangeAssignor warn - No broker partitions consumed by consumer thread test_ubu-VirtualBox-1463702321848-7a5d31a5-2 for topic eddydata
[WARN] 2016-05-20 02:58:41,974 kafka.consumer.RangeAssignor warn - No broker partitions consumed by consumer thread test_ubu-VirtualBox-1463702321848-7a5d31a5-1 for topic eddydata
[INFO] 2016-05-20 02:58:41,975 kafka.consumer.RangeAssignor info - test_ubu-VirtualBox-1463702321848-7a5d31a5-0 attempting to claim partition 0
[INFO] 2016-05-20 02:58:41,989 kafka.consumer.ZookeeperConsumerConnector info - [test_ubu-VirtualBox-1463702321848-7a5d31a5], test_ubu-VirtualBox-1463702321848-7a5d31a5-0 successfully owned partition 0 for topic eddydata
[INFO] 2016-05-20 02:58:41,995 kafka.consumer.ZookeeperConsumerConnector info - [test_ubu-VirtualBox-1463702321848-7a5d31a5], Consumer test_ubu-VirtualBox-1463702321848-7a5d31a5 selected partitions : eddydata:0: fetched offset = 1: consumed offset = 1
[INFO] 2016-05-20 02:58:41,996 kafka.consumer.ZookeeperConsumerConnector info - [test_ubu-VirtualBox-1463702321848-7a5d31a5], end rebalancing consumer test_ubu-VirtualBox-1463702321848-7a5d31a5 try #0
[INFO] 2016-05-20 02:58:42,008 kafka.consumer.ConsumerFetcherManager$LeaderFinderThread info - [test_ubu-VirtualBox-1463702321848-7a5d31a5-leader-finder-thread], Starting 
[INFO] 2016-05-20 02:58:42,028 kafka.utils.VerifiableProperties info - Verifying properties
[INFO] 2016-05-20 02:58:42,031 kafka.utils.VerifiableProperties info - Property client.id is overridden to test
[INFO] 2016-05-20 02:58:42,032 kafka.utils.VerifiableProperties info - Property metadata.broker.list is overridden to ubu-VirtualBox:9092
[INFO] 2016-05-20 02:58:42,032 kafka.utils.VerifiableProperties info - Property request.timeout.ms is overridden to 30000
[INFO] 2016-05-20 02:58:42,077 kafka.client.ClientUtils$ info - Fetching metadata from broker id:0,host:ubu-VirtualBox,port:9092 with correlation id 0 for 1 topic(s) Set(eddydata)
[INFO] 2016-05-20 02:58:42,079 kafka.producer.SyncProducer info - Connected to ubu-VirtualBox:9092 for producing
[INFO] 2016-05-20 02:58:42,090 kafka.producer.SyncProducer info - Disconnecting from ubu-VirtualBox:9092
[INFO] 2016-05-20 02:58:42,107 kafka.consumer.ConsumerFetcherManager info - [ConsumerFetcherManager-1463702321870] Added fetcher for partitions ArrayBuffer([[eddydata,0], initOffset 1 to broker id:0,host:ubu-VirtualBox,port:9092] )
[INFO] 2016-05-20 02:58:42,109 kafka.consumer.ConsumerFetcherThread info - [ConsumerFetcherThread-test_ubu-VirtualBox-1463702321848-7a5d31a5-0-0], Starting 
[INFO] 2016-05-20 03:03:09,894 kafka.utils.VerifiableProperties info - Verifying properties
[INFO] 2016-05-20 03:03:09,898 kafka.utils.VerifiableProperties info - Property auto.offset.reset is overridden to largest
[INFO] 2016-05-20 03:03:09,898 kafka.utils.VerifiableProperties info - Property consumer.timeout.ms is overridden to 1500
[INFO] 2016-05-20 03:03:09,898 kafka.utils.VerifiableProperties info - Property group.id is overridden to ReactiveKafka-68cd23b5-28f1-4eb0-8359-6a62d99e1b6b
[WARN] 2016-05-20 03:03:09,899 kafka.utils.VerifiableProperties warn - Property metadata.broker.list is not valid
[INFO] 2016-05-20 03:03:09,899 kafka.utils.VerifiableProperties info - Property offsets.storage is overridden to zookeeper
[INFO] 2016-05-20 03:03:09,900 kafka.utils.VerifiableProperties info - Property zookeeper.connect is overridden to localhost:2181
[INFO] 2016-05-20 03:03:09,939 kafka.consumer.ZookeeperConsumerConnector info - [ReactiveKafka-68cd23b5-28f1-4eb0-8359-6a62d99e1b6b_ubu-VirtualBox-1463702589939-13055381], Connecting to zookeeper instance at localhost:2181
[INFO] 2016-05-20 03:03:09,950 org.I0Itec.zkclient.ZkEventThread run - Starting ZkClient event thread.
[INFO] 2016-05-20 03:03:09,987 org.I0Itec.zkclient.ZkClient processStateChanged - zookeeper state changed (SyncConnected)
[INFO] 2016-05-20 03:03:09,995 kafka.consumer.ZookeeperConsumerConnector info - [ReactiveKafka-68cd23b5-28f1-4eb0-8359-6a62d99e1b6b_ubu-VirtualBox-1463702589939-13055381], starting auto committer every 60000 ms
[INFO] 2016-05-20 03:03:10,006 kafka.consumer.KafkaConsumer <init> - setup:start topic=hrv for zk=localhost:2181 and groupId=ReactiveKafka-68cd23b5-28f1-4eb0-8359-6a62d99e1b6b
[INFO] 2016-05-20 03:03:10,041 kafka.consumer.ZookeeperConsumerConnector info - [ReactiveKafka-68cd23b5-28f1-4eb0-8359-6a62d99e1b6b_ubu-VirtualBox-1463702589939-13055381], begin registering consumer ReactiveKafka-68cd23b5-28f1-4eb0-8359-6a62d99e1b6b_ubu-VirtualBox-1463702589939-13055381 in ZK
[INFO] 2016-05-20 03:03:10,081 kafka.consumer.ZookeeperConsumerConnector info - [ReactiveKafka-68cd23b5-28f1-4eb0-8359-6a62d99e1b6b_ubu-VirtualBox-1463702589939-13055381], end registering consumer ReactiveKafka-68cd23b5-28f1-4eb0-8359-6a62d99e1b6b_ubu-VirtualBox-1463702589939-13055381 in ZK
[INFO] 2016-05-20 03:03:10,088 kafka.consumer.ZookeeperConsumerConnector info - [ReactiveKafka-68cd23b5-28f1-4eb0-8359-6a62d99e1b6b_ubu-VirtualBox-1463702589939-13055381], starting watcher executor thread for consumer ReactiveKafka-68cd23b5-28f1-4eb0-8359-6a62d99e1b6b_ubu-VirtualBox-1463702589939-13055381
[INFO] 2016-05-20 03:03:10,104 kafka.consumer.ZookeeperConsumerConnector info - [ReactiveKafka-68cd23b5-28f1-4eb0-8359-6a62d99e1b6b_ubu-VirtualBox-1463702589939-13055381], begin rebalancing consumer ReactiveKafka-68cd23b5-28f1-4eb0-8359-6a62d99e1b6b_ubu-VirtualBox-1463702589939-13055381 try #0
[INFO] 2016-05-20 03:03:10,233 kafka.consumer.ConsumerFetcherManager info - [ConsumerFetcherManager-1463702589993] Stopping leader finder thread
[INFO] 2016-05-20 03:03:10,234 kafka.consumer.ConsumerFetcherManager info - [ConsumerFetcherManager-1463702589993] Stopping all fetchers
[INFO] 2016-05-20 03:03:10,235 kafka.consumer.ConsumerFetcherManager info - [ConsumerFetcherManager-1463702589993] All connections stopped
[INFO] 2016-05-20 03:03:10,235 kafka.consumer.ZookeeperConsumerConnector info - [ReactiveKafka-68cd23b5-28f1-4eb0-8359-6a62d99e1b6b_ubu-VirtualBox-1463702589939-13055381], Cleared all relevant queues for this fetcher
[INFO] 2016-05-20 03:03:10,236 kafka.consumer.ZookeeperConsumerConnector info - [ReactiveKafka-68cd23b5-28f1-4eb0-8359-6a62d99e1b6b_ubu-VirtualBox-1463702589939-13055381], Cleared the data chunks in all the consumer message iterators
[INFO] 2016-05-20 03:03:10,236 kafka.consumer.ZookeeperConsumerConnector info - [ReactiveKafka-68cd23b5-28f1-4eb0-8359-6a62d99e1b6b_ubu-VirtualBox-1463702589939-13055381], Committing all offsets after clearing the fetcher queues
[INFO] 2016-05-20 03:03:10,237 kafka.consumer.ZookeeperConsumerConnector info - [ReactiveKafka-68cd23b5-28f1-4eb0-8359-6a62d99e1b6b_ubu-VirtualBox-1463702589939-13055381], Releasing partition ownership
[INFO] 2016-05-20 03:03:10,270 kafka.consumer.ZookeeperConsumerConnector info - [ReactiveKafka-68cd23b5-28f1-4eb0-8359-6a62d99e1b6b_ubu-VirtualBox-1463702589939-13055381], Consumer ReactiveKafka-68cd23b5-28f1-4eb0-8359-6a62d99e1b6b_ubu-VirtualBox-1463702589939-13055381 selected partitions : 
[INFO] 2016-05-20 03:03:10,274 kafka.consumer.ConsumerFetcherManager$LeaderFinderThread info - [ReactiveKafka-68cd23b5-28f1-4eb0-8359-6a62d99e1b6b_ubu-VirtualBox-1463702589939-13055381-leader-finder-thread], Starting 
[INFO] 2016-05-20 03:03:10,276 kafka.consumer.ZookeeperConsumerConnector info - [ReactiveKafka-68cd23b5-28f1-4eb0-8359-6a62d99e1b6b_ubu-VirtualBox-1463702589939-13055381], end rebalancing consumer ReactiveKafka-68cd23b5-28f1-4eb0-8359-6a62d99e1b6b_ubu-VirtualBox-1463702589939-13055381 try #0
[INFO] 2016-05-20 03:03:10,278 kafka.consumer.ZookeeperConsumerConnector info - [ReactiveKafka-68cd23b5-28f1-4eb0-8359-6a62d99e1b6b_ubu-VirtualBox-1463702589939-13055381], Creating topic event watcher for topics hrv
[INFO] 2016-05-20 03:03:10,285 kafka.consumer.ZookeeperConsumerConnector info - [ReactiveKafka-68cd23b5-28f1-4eb0-8359-6a62d99e1b6b_ubu-VirtualBox-1463702589939-13055381], Topics to consume = List()
[INFO] 2016-05-20 03:03:10,286 kafka.consumer.KafkaConsumer <init> - setup:complete topic=hrv for zk=localhost:2181 and groupId=ReactiveKafka-68cd23b5-28f1-4eb0-8359-6a62d99e1b6b
[INFO] 2016-05-20 03:03:10,295 kafka.utils.VerifiableProperties info - Verifying properties
[INFO] 2016-05-20 03:03:10,295 kafka.utils.VerifiableProperties info - Property auto.offset.reset is overridden to largest
[INFO] 2016-05-20 03:03:10,295 kafka.utils.VerifiableProperties info - Property consumer.timeout.ms is overridden to 1500
[INFO] 2016-05-20 03:03:10,296 kafka.utils.VerifiableProperties info - Property group.id is overridden to ReactiveKafka-f67f7f5e-2876-41de-b2fb-65b09095428e
[WARN] 2016-05-20 03:03:10,296 kafka.utils.VerifiableProperties warn - Property metadata.broker.list is not valid
[INFO] 2016-05-20 03:03:10,296 kafka.utils.VerifiableProperties info - Property offsets.storage is overridden to zookeeper
[INFO] 2016-05-20 03:03:10,296 kafka.utils.VerifiableProperties info - Property zookeeper.connect is overridden to localhost:2181
[INFO] 2016-05-20 03:03:10,299 kafka.consumer.ZookeeperConsumerConnector info - [ReactiveKafka-f67f7f5e-2876-41de-b2fb-65b09095428e_ubu-VirtualBox-1463702590299-d65c0f8b], Connecting to zookeeper instance at localhost:2181
[INFO] 2016-05-20 03:03:10,300 org.I0Itec.zkclient.ZkEventThread run - Starting ZkClient event thread.
[INFO] 2016-05-20 03:03:10,315 org.I0Itec.zkclient.ZkClient processStateChanged - zookeeper state changed (SyncConnected)
[INFO] 2016-05-20 03:03:10,317 kafka.consumer.ZookeeperConsumerConnector info - [ReactiveKafka-f67f7f5e-2876-41de-b2fb-65b09095428e_ubu-VirtualBox-1463702590299-d65c0f8b], starting auto committer every 60000 ms
[INFO] 2016-05-20 03:03:10,319 kafka.consumer.KafkaConsumer <init> - setup:start topic=rtSocketData for zk=localhost:2181 and groupId=ReactiveKafka-f67f7f5e-2876-41de-b2fb-65b09095428e
[INFO] 2016-05-20 03:03:10,322 kafka.consumer.ZookeeperConsumerConnector info - [ReactiveKafka-f67f7f5e-2876-41de-b2fb-65b09095428e_ubu-VirtualBox-1463702590299-d65c0f8b], begin registering consumer ReactiveKafka-f67f7f5e-2876-41de-b2fb-65b09095428e_ubu-VirtualBox-1463702590299-d65c0f8b in ZK
[INFO] 2016-05-20 03:03:10,338 kafka.consumer.ZookeeperConsumerConnector info - [ReactiveKafka-f67f7f5e-2876-41de-b2fb-65b09095428e_ubu-VirtualBox-1463702590299-d65c0f8b], end registering consumer ReactiveKafka-f67f7f5e-2876-41de-b2fb-65b09095428e_ubu-VirtualBox-1463702590299-d65c0f8b in ZK
[INFO] 2016-05-20 03:03:10,340 kafka.consumer.ZookeeperConsumerConnector info - [ReactiveKafka-f67f7f5e-2876-41de-b2fb-65b09095428e_ubu-VirtualBox-1463702590299-d65c0f8b], starting watcher executor thread for consumer ReactiveKafka-f67f7f5e-2876-41de-b2fb-65b09095428e_ubu-VirtualBox-1463702590299-d65c0f8b
[INFO] 2016-05-20 03:03:10,343 kafka.consumer.ZookeeperConsumerConnector info - [ReactiveKafka-f67f7f5e-2876-41de-b2fb-65b09095428e_ubu-VirtualBox-1463702590299-d65c0f8b], begin rebalancing consumer ReactiveKafka-f67f7f5e-2876-41de-b2fb-65b09095428e_ubu-VirtualBox-1463702590299-d65c0f8b try #0
[INFO] 2016-05-20 03:03:10,378 kafka.consumer.ConsumerFetcherManager info - [ConsumerFetcherManager-1463702590316] Stopping leader finder thread
[INFO] 2016-05-20 03:03:10,378 kafka.consumer.ConsumerFetcherManager info - [ConsumerFetcherManager-1463702590316] Stopping all fetchers
[INFO] 2016-05-20 03:03:10,379 kafka.consumer.ConsumerFetcherManager info - [ConsumerFetcherManager-1463702590316] All connections stopped
[INFO] 2016-05-20 03:03:10,379 kafka.consumer.ZookeeperConsumerConnector info - [ReactiveKafka-f67f7f5e-2876-41de-b2fb-65b09095428e_ubu-VirtualBox-1463702590299-d65c0f8b], Cleared all relevant queues for this fetcher
[INFO] 2016-05-20 03:03:10,379 kafka.consumer.ZookeeperConsumerConnector info - [ReactiveKafka-f67f7f5e-2876-41de-b2fb-65b09095428e_ubu-VirtualBox-1463702590299-d65c0f8b], Cleared the data chunks in all the consumer message iterators
[INFO] 2016-05-20 03:03:10,379 kafka.consumer.ZookeeperConsumerConnector info - [ReactiveKafka-f67f7f5e-2876-41de-b2fb-65b09095428e_ubu-VirtualBox-1463702590299-d65c0f8b], Committing all offsets after clearing the fetcher queues
[INFO] 2016-05-20 03:03:10,380 kafka.consumer.ZookeeperConsumerConnector info - [ReactiveKafka-f67f7f5e-2876-41de-b2fb-65b09095428e_ubu-VirtualBox-1463702590299-d65c0f8b], Releasing partition ownership
[INFO] 2016-05-20 03:03:10,405 kafka.consumer.ZookeeperConsumerConnector info - [ReactiveKafka-f67f7f5e-2876-41de-b2fb-65b09095428e_ubu-VirtualBox-1463702590299-d65c0f8b], Consumer ReactiveKafka-f67f7f5e-2876-41de-b2fb-65b09095428e_ubu-VirtualBox-1463702590299-d65c0f8b selected partitions : 
[INFO] 2016-05-20 03:03:10,405 kafka.consumer.ZookeeperConsumerConnector info - [ReactiveKafka-f67f7f5e-2876-41de-b2fb-65b09095428e_ubu-VirtualBox-1463702590299-d65c0f8b], end rebalancing consumer ReactiveKafka-f67f7f5e-2876-41de-b2fb-65b09095428e_ubu-VirtualBox-1463702590299-d65c0f8b try #0
[INFO] 2016-05-20 03:03:10,406 kafka.consumer.ZookeeperConsumerConnector info - [ReactiveKafka-f67f7f5e-2876-41de-b2fb-65b09095428e_ubu-VirtualBox-1463702590299-d65c0f8b], Creating topic event watcher for topics rtSocketData
[INFO] 2016-05-20 03:03:10,407 kafka.consumer.ConsumerFetcherManager$LeaderFinderThread info - [ReactiveKafka-f67f7f5e-2876-41de-b2fb-65b09095428e_ubu-VirtualBox-1463702590299-d65c0f8b-leader-finder-thread], Starting 
[INFO] 2016-05-20 03:03:10,410 kafka.consumer.ZookeeperConsumerConnector info - [ReactiveKafka-f67f7f5e-2876-41de-b2fb-65b09095428e_ubu-VirtualBox-1463702590299-d65c0f8b], Topics to consume = List()
[INFO] 2016-05-20 03:03:10,410 kafka.consumer.KafkaConsumer <init> - setup:complete topic=rtSocketData for zk=localhost:2181 and groupId=ReactiveKafka-f67f7f5e-2876-41de-b2fb-65b09095428e
[INFO] 2016-05-20 03:03:10,586 kafka.utils.VerifiableProperties info - Verifying properties
[INFO] 2016-05-20 03:03:10,587 kafka.utils.VerifiableProperties info - Property auto.commit.interval.ms is overridden to 1000
[INFO] 2016-05-20 03:03:10,588 kafka.utils.VerifiableProperties info - Property auto.offset.reset is overridden to largest
[INFO] 2016-05-20 03:03:10,588 kafka.utils.VerifiableProperties info - Property group.id is overridden to test
[INFO] 2016-05-20 03:03:10,589 kafka.utils.VerifiableProperties info - Property zookeeper.connect is overridden to localhost:2181
[INFO] 2016-05-20 03:03:10,589 kafka.utils.VerifiableProperties info - Property zookeeper.session.timeout.ms is overridden to 400
[INFO] 2016-05-20 03:03:10,589 kafka.utils.VerifiableProperties info - Property zookeeper.sync.time.ms is overridden to 200
[INFO] 2016-05-20 03:03:10,597 kafka.consumer.ZookeeperConsumerConnector info - [test_ubu-VirtualBox-1463702590597-8546d512], Connecting to zookeeper instance at localhost:2181
[INFO] 2016-05-20 03:03:10,597 org.I0Itec.zkclient.ZkEventThread run - Starting ZkClient event thread.
[INFO] 2016-05-20 03:03:10,622 org.I0Itec.zkclient.ZkClient processStateChanged - zookeeper state changed (SyncConnected)
[INFO] 2016-05-20 03:03:10,623 kafka.consumer.ZookeeperConsumerConnector info - [test_ubu-VirtualBox-1463702590597-8546d512], starting auto committer every 1000 ms
[INFO] 2016-05-20 03:03:10,644 kafka.consumer.ZookeeperConsumerConnector info - [test_ubu-VirtualBox-1463702590597-8546d512], begin registering consumer test_ubu-VirtualBox-1463702590597-8546d512 in ZK
[INFO] 2016-05-20 03:03:10,648 kafka.consumer.ZookeeperConsumerConnector info - [test_ubu-VirtualBox-1463702590597-8546d512], end registering consumer test_ubu-VirtualBox-1463702590597-8546d512 in ZK
[INFO] 2016-05-20 03:03:10,666 kafka.consumer.ZookeeperConsumerConnector info - [test_ubu-VirtualBox-1463702590597-8546d512], starting watcher executor thread for consumer test_ubu-VirtualBox-1463702590597-8546d512
[INFO] 2016-05-20 03:03:10,681 kafka.consumer.ZookeeperConsumerConnector info - [test_ubu-VirtualBox-1463702590597-8546d512], begin rebalancing consumer test_ubu-VirtualBox-1463702590597-8546d512 try #0
[INFO] 2016-05-20 03:03:10,728 kafka.consumer.ConsumerFetcherManager info - [ConsumerFetcherManager-1463702590622] Stopping leader finder thread
[INFO] 2016-05-20 03:03:10,734 kafka.consumer.ConsumerFetcherManager info - [ConsumerFetcherManager-1463702590622] Stopping all fetchers
[INFO] 2016-05-20 03:03:10,735 kafka.consumer.ConsumerFetcherManager info - [ConsumerFetcherManager-1463702590622] All connections stopped
[INFO] 2016-05-20 03:03:10,735 kafka.consumer.ZookeeperConsumerConnector info - [test_ubu-VirtualBox-1463702590597-8546d512], Cleared all relevant queues for this fetcher
[INFO] 2016-05-20 03:03:10,736 kafka.consumer.ZookeeperConsumerConnector info - [test_ubu-VirtualBox-1463702590597-8546d512], Cleared the data chunks in all the consumer message iterators
[INFO] 2016-05-20 03:03:10,738 kafka.consumer.ZookeeperConsumerConnector info - [test_ubu-VirtualBox-1463702590597-8546d512], Committing all offsets after clearing the fetcher queues
[INFO] 2016-05-20 03:03:10,739 kafka.consumer.ZookeeperConsumerConnector info - [test_ubu-VirtualBox-1463702590597-8546d512], Releasing partition ownership
[INFO] 2016-05-20 03:03:10,796 kafka.consumer.RangeAssignor info - Consumer test_ubu-VirtualBox-1463702590597-8546d512 rebalancing the following partitions: ArrayBuffer(0) for topic eddydata with consumers: List(test_ubu-VirtualBox-1463702590597-8546d512-0, test_ubu-VirtualBox-1463702590597-8546d512-1, test_ubu-VirtualBox-1463702590597-8546d512-2)
[WARN] 2016-05-20 03:03:10,799 kafka.consumer.RangeAssignor warn - No broker partitions consumed by consumer thread test_ubu-VirtualBox-1463702590597-8546d512-1 for topic eddydata
[INFO] 2016-05-20 03:03:10,800 kafka.consumer.RangeAssignor info - test_ubu-VirtualBox-1463702590597-8546d512-0 attempting to claim partition 0
[WARN] 2016-05-20 03:03:10,803 kafka.consumer.RangeAssignor warn - No broker partitions consumed by consumer thread test_ubu-VirtualBox-1463702590597-8546d512-2 for topic eddydata
[INFO] 2016-05-20 03:03:10,836 kafka.consumer.ZookeeperConsumerConnector info - [test_ubu-VirtualBox-1463702590597-8546d512], test_ubu-VirtualBox-1463702590597-8546d512-0 successfully owned partition 0 for topic eddydata
[INFO] 2016-05-20 03:03:10,844 kafka.consumer.ZookeeperConsumerConnector info - [test_ubu-VirtualBox-1463702590597-8546d512], Consumer test_ubu-VirtualBox-1463702590597-8546d512 selected partitions : eddydata:0: fetched offset = 1: consumed offset = 1
[INFO] 2016-05-20 03:03:10,845 kafka.consumer.ZookeeperConsumerConnector info - [test_ubu-VirtualBox-1463702590597-8546d512], end rebalancing consumer test_ubu-VirtualBox-1463702590597-8546d512 try #0
[INFO] 2016-05-20 03:03:10,852 kafka.consumer.ConsumerFetcherManager$LeaderFinderThread info - [test_ubu-VirtualBox-1463702590597-8546d512-leader-finder-thread], Starting 
[INFO] 2016-05-20 03:03:10,895 kafka.utils.VerifiableProperties info - Verifying properties
[INFO] 2016-05-20 03:03:10,899 kafka.utils.VerifiableProperties info - Property client.id is overridden to test
[INFO] 2016-05-20 03:03:10,900 kafka.utils.VerifiableProperties info - Property metadata.broker.list is overridden to ubu-VirtualBox:9092
[INFO] 2016-05-20 03:03:10,900 kafka.utils.VerifiableProperties info - Property request.timeout.ms is overridden to 30000
[INFO] 2016-05-20 03:03:10,966 kafka.client.ClientUtils$ info - Fetching metadata from broker id:0,host:ubu-VirtualBox,port:9092 with correlation id 0 for 1 topic(s) Set(eddydata)
[INFO] 2016-05-20 03:03:10,969 kafka.producer.SyncProducer info - Connected to ubu-VirtualBox:9092 for producing
[INFO] 2016-05-20 03:03:10,981 kafka.producer.SyncProducer info - Disconnecting from ubu-VirtualBox:9092
[INFO] 2016-05-20 03:03:10,999 kafka.consumer.ConsumerFetcherManager info - [ConsumerFetcherManager-1463702590622] Added fetcher for partitions ArrayBuffer([[eddydata,0], initOffset 1 to broker id:0,host:ubu-VirtualBox,port:9092] )
[INFO] 2016-05-20 03:03:11,000 kafka.consumer.ConsumerFetcherThread info - [ConsumerFetcherThread-test_ubu-VirtualBox-1463702590597-8546d512-0-0], Starting 
[INFO] 2016-05-20 03:03:43,170 kafka.utils.VerifiableProperties info - Verifying properties
[WARN] 2016-05-20 03:03:43,174 kafka.utils.VerifiableProperties warn - Property group.id is not valid
[INFO] 2016-05-20 03:03:43,175 kafka.utils.VerifiableProperties info - Property metadata.broker.list is overridden to localhost:9092
[INFO] 2016-05-20 03:03:43,175 kafka.utils.VerifiableProperties info - Property serializer.class is overridden to kafka.serializer.StringEncoder
[WARN] 2016-05-20 03:03:43,176 kafka.utils.VerifiableProperties warn - Property zookeeper.connect is not valid
[INFO] 2016-05-20 03:03:43,337 kafka.client.ClientUtils$ info - Fetching metadata from broker id:0,host:localhost,port:9092 with correlation id 0 for 1 topic(s) Set(eddydata)
[INFO] 2016-05-20 03:03:43,345 kafka.producer.SyncProducer info - Connected to localhost:9092 for producing
[INFO] 2016-05-20 03:03:43,363 kafka.producer.SyncProducer info - Disconnecting from localhost:9092
[INFO] 2016-05-20 03:03:43,394 kafka.producer.SyncProducer info - Connected to ubu-VirtualBox:9092 for producing
